…
(Only 20 rows are shown.)

## Let’s try one different step

Let's observe what will come in result if we use `end_with` in place
of `starts_with`.

``` r
iris %>%
  select(ends_with('Length')) %>%
  rowwise() %>%
  mutate(Length.Diff = Sepal.Length- Petal.Length)
```

    ## # A tibble: 150 x 3
    ## # Rowwise: 
    ##    Sepal.Length Petal.Length Length.Diff
    ##           <dbl>        <dbl>       <dbl>
    ##  1          5.1          1.4         3.7
    ##  2          4.9          1.4         3.5
    ##  3          4.7          1.3         3.4
    ##  4          4.6          1.5         3.1
    ##  5          5            1.4         3.6
    ##  6          5.4          1.7         3.7
    ##  7          4.6          1.4         3.2
    ##  8          5            1.5         3.5
    ##  9          4.4          1.4         3  
    ## 10          4.9          1.5         3.4
    ## # ... with 140 more rows
…
